…
``` r
library(readr)
library(purrr)

set.seed(10)

iris_with_missing = iris %>% 
  map_df(~replace(.x, sample(1:150, 20), NA)) %>%
  mutate(Species = as.character(Species))
iris_with_missing
```

    ## # A tibble: 150 x 5
    ##    Sepal.Length Sepal.Width Petal.Length Petal.Width Species
    ##           <dbl>       <dbl>        <dbl>       <dbl> <chr>  
    ##  1          5.1         3.5          1.4         0.2 setosa 
    ##  2          4.9         3            1.4         0.2 setosa 
    ##  3          4.7         3.2          1.3         0.2 setosa 
    ##  4          4.6         3.1          1.5        NA   setosa 
    ##  5          5           3.6          1.4         0.2 setosa 
    ##  6          5.4         3.9          1.7         0.4 setosa 
    ##  7         NA           3.4          1.4         0.3 setosa 
    ##  8          5           3.4          1.5         0.2 setosa 
    ##  9          4.4         2.9          1.4         0.2 setosa 
    ## 10          4.9         3.1         NA           0.1 setosa 
    ## # … with 140 more rows
…
``` r
replaced_iris = function(x) {
  if(is.numeric(x)) {
    ifelse(is.na(x), mean(x, na.rm = TRUE), x)
  } else if (is.character(x)) {
    ifelse(is.na(x), "virginica", x)
  }
}

iris_full = map_df(iris_with_missing, replaced_iris)
iris_full
```

    ## # A tibble: 150 x 5
    ##    Sepal.Length Sepal.Width Petal.Length Petal.Width Species
    ##           <dbl>       <dbl>        <dbl>       <dbl> <chr>  
    ##  1         5.1          3.5         1.4         0.2  setosa 
    ##  2         4.9          3           1.4         0.2  setosa 
    ##  3         4.7          3.2         1.3         0.2  setosa 
    ##  4         4.6          3.1         1.5         1.19 setosa 
    ##  5         5            3.6         1.4         0.2  setosa 
    ##  6         5.4          3.9         1.7         0.4  setosa 
    ##  7         5.82         3.4         1.4         0.3  setosa 
    ##  8         5            3.4         1.5         0.2  setosa 
    ##  9         4.4          2.9         1.4         0.2  setosa 
    ## 10         4.9          3.1         3.77        0.1  setosa 
    ## # … with 140 more rows
…
    ## Warning: `cols` is now required.
    ## Please use `cols = c(weekly_data)`

``` r
study
```

    ## # A tibble: 160 x 5
    ##    participant files             study_arm week  result
    ##    <chr>       <chr>             <chr>     <chr>  <dbl>
    ##  1 con_01      ./data/con_01.csv control   1       0.2 
    ##  2 con_01      ./data/con_01.csv control   2      -1.31
    ##  3 con_01      ./data/con_01.csv control   3       0.66
    ##  4 con_01      ./data/con_01.csv control   4       1.96
    ##  5 con_01      ./data/con_01.csv control   5       0.23
    ##  6 con_01      ./data/con_01.csv control   6       1.09
    ##  7 con_01      ./data/con_01.csv control   7       0.05
    ##  8 con_01      ./data/con_01.csv control   8       1.94
    ##  9 con_02      ./data/con_02.csv control   1       1.13
    ## 10 con_02      ./data/con_02.csv control   2      -0.88
    ## # … with 150 more rows
…
sim_results = rerun(100, sim_regression()) %>%
  bind_rows()

results = tibble(
  beta1 = c(0, 1, 2, 3, 4, 5, 6)) %>%
  mutate(
    output_list = map(.x = beta1, ~rerun(100, sim_regression(beta1 = .x))),
    estimate_dfs = map(output_list, bind_rows)) %>%
  select(-output_list) %>%
  unnest(estimate_dfs)
results
```

    ## # A tibble: 700 x 6
    ##    beta1 term  estimate std.error statistic p.value
    ##    <dbl> <chr>    <dbl>     <dbl>     <dbl>   <dbl>
    ##  1     0 x        0.792     1.60     0.496   0.624 
    ##  2     0 x        3.68      1.47     2.51    0.0182
    ##  3     0 x       -1.47      1.67    -0.883   0.385 
    ##  4     0 x       -0.610     0.982   -0.621   0.539 
    ##  5     0 x       -0.161     2.24    -0.0716  0.943 
    ##  6     0 x        3.21      1.35     2.38    0.0245
    ##  7     0 x       -2.37      1.40    -1.69    0.102 
    ##  8     0 x       -1.32      1.11    -1.20    0.242 
    ##  9     0 x       -0.993     1.29    -0.770   0.447 
    ## 10     0 x        0.795     1.80     0.441   0.662 
    ## # … with 690 more rows
…
